id;question;answers;explication;goodAnswers
1;Lequel des éléments suivants n’est pas un concept POO en Java?;Héritage,Encapsulation,Polymorphisme,Compilation;Il existe 4 concepts POO en Java. Héritage encapsulation polymorphisme et abstraction.;D
2;Quand la surcharge de méthode est-elle déterminée?;Au moment de l’exécution,Au moment de la compilation,Au moment du codage,Au moment de l’exécution; La surcharge est déterminée au moment de la compilation.;B
3;Quand la surcharge ne se produit pas?;Quand il y a plusieurs méthodes avec le même nom mais avec une signature de méthode différente et un nombre ou un type de paramètres différent,Quand il y a plusieurs méthodes avec le même nom le même nombre de paramètres et le type mais une signature différente,Quand il y a plusieurs méthodes avec le même nom la même signature le même nombre de paramètres mais un type différent,Quand il y a plusieurs méthodes avec le même nom la même signature mais avec différente signature;La surcharge survient lorsque plusieurs méthodes ont le même nom mais un constructeur différent et aussi quand la même signature mais un nombre différent de paramètres et / ou de type de paramètre.;B
4;Quel concept de Java est un moyen de convertir des objets du monde réel en termes de classe?;Polymorphisme,Encapsulation,Abstraction,Héritage;L’abstraction est un concept de définition des objets du monde réel en termes de classes ou d’interfaces.;C
5;Quel concept de Java est utilisé en combinant des méthodes et des attributs dans une classe?;Polymorphisme,Encapsulation,Abstractio,Héritage;L’encapsulation est implémentée en combinant des méthodes et des attributs dans une classe. La classe agit comme un conteneur de propriétés d’encapsulation.;B
6;Comment ça s’appelle si un objet a son propre cycle de vie?;Agrégation,Composition,Encapsulation,Association;C’est une relation où tous les objets ont leur propre cycle de vie. Cela se produit lorsque de nombreuses relations sont disponibles au lieu de One To One ou One To Many.;D
7;Comment s’appelle-t-on dans le cas où l’objet d’une classe mère est détruit donc l’objet d’une classe fille sera détruit également?;Agrégation,Composition,Encapsulation,Association;La composition se produit lorsque l’objet d’une classe fille est détruit si l’objet de la classe mère est détruit. La composition est également appelée une agrégation forte.;B
8;Comment s’appelle-t-on l’objet a son propre cycle de vie et l’objet d’une classe fille ne dépend pas à un autre objet d’une classe mère?;Agrégation,Composition,Encapsulation,Association;L’agrégation se produit lorsque les objets ont leur propre cycle de vie et que l’objet d’une classe fille peut être associé à un seul objet d’une classe mère.;A
9;La surcharge d’une méthode peut remplacer l’héritage et le polymorphisme?;Vrai,Faux; L’agrégation se produit lorsque les objets ont leur propre cycle de vie et que l’objet d’une classe fille peut être associé à un seul objet d’une classe mère.;A
10;Quels keywords sont utilisés pour spécifier la visibilité des propriétés et des méthodes ?;final,private,abstract,protected,public; les mots clés utilisés pour spécifier la visibilité des propriétés et des méthodes sont : private protected public.;B,D,E